R homework : biking patterns
…
Check that the data was imported correctly and inspect the values to see if they make sense. Highlight any unusual value. If you don’t find any unusual value, report the checks you did.

Manipulate the data (3 pt)

Join the three datasets in single dataset called data.

data<-counts%>%left_join(sensors,by="ID")%>%left_join(arrondissements,by="Arrondissement")

Create three columns Year, Month and Day (in addition to Date) in data. Make sure not to remove Date and to store Year, Month and Day using appropriate data types.

 data<-data%>%separate(Date, into = c("Year","Month","Day"),sep="-",convert=TRUE,remove=FALSE)
 data

## # A tibble: 30,818 x 16
##    ID    Date        Year Month   Day Bike_count Name  Location_ID Location_name
##    <chr> <date>     <int> <int> <int>      <dbl> <chr>       <dbl> <chr>        
##  1 1000~ 2019-11-01  2019    11     1        144 97 a~   100003096 97 avenue De~
##  2 1000~ 2019-11-02  2019    11     2        201 97 a~   100003096 97 avenue De~
##  3 1000~ 2019-11-03  2019    11     3         93 97 a~   100003096 97 avenue De~
##  4 1000~ 2019-11-04  2019    11     4        285 97 a~   100003096 97 avenue De~
##  5 1000~ 2019-11-05  2019    11     5        348 97 a~   100003096 97 avenue De~
##  6 1000~ 2019-11-06  2019    11     6        278 97 a~   100003096 97 avenue De~
##  7 1000~ 2019-11-07  2019    11     7        310 97 a~   100003096 97 avenue De~
##  8 1000~ 2019-11-08  2019    11     8        316 97 a~   100003096 97 avenue De~
##  9 1000~ 2019-11-09  2019    11     9        280 97 a~   100003096 97 avenue De~
## 10 1000~ 2019-11-10  2019    11    10        135 97 a~   100003096 97 avenue De~
## # ... with 30,808 more rows, and 7 more variables: Setup_date <date>,
## #   GPS_coordinates <chr>, Arrondissement <dbl>, Arrondissement_name <chr>,
## #   Surface <dbl>, Perimeter <dbl>, Population <dbl>
…
